<?xml version="1.0" encoding="UTF-8" standalone="no"?>
<!-- Created with Inkscape (http://www.inkscape.org/) -->

<svg
   xmlns:dc="http://purl.org/dc/elements/1.1/"
   xmlns:cc="http://creativecommons.org/ns#"
   xmlns:rdf="http://www.w3.org/1999/02/22-rdf-syntax-ns#"
   xmlns:svg="http://www.w3.org/2000/svg"
   xmlns="http://www.w3.org/2000/svg"
   xmlns:sodipodi="http://sodipodi.sourceforge.net/DTD/sodipodi-0.dtd"
   xmlns:inkscape="http://www.inkscape.org/namespaces/inkscape"
   width="43.344223mm"
   height="110mm"
   viewBox="0 0 43.344222 110"
   version="1.1"
   id="svg8"
   inkscape:version="0.92.4 (5da689c313, 2019-01-14)"
   sodipodi:docname="human-move-legs.svg">
  <defs
     id="defs2" />
  <sodipodi:namedview
     id="base"
     pagecolor="#ffffff"
     bordercolor="#666666"
     borderopacity="1.0"
     inkscape:pageopacity="0.0"
     inkscape:pageshadow="2"
     inkscape:zoom="2.8"
     inkscape:cx="64.205231"
     inkscape:cy="290.55562"
     inkscape:document-units="mm"
     inkscape:current-layer="layer1"
     showgrid="false"
     inkscape:window-width="1440"
     inkscape:window-height="835"
     inkscape:window-x="0"
     inkscape:window-y="0"
     inkscape:window-maximized="1">
    <inkscape:grid
       type="xygrid"
       id="grid836"
       originx="51.713228"
       originy="36.187496" />
  </sodipodi:namedview>
  <metadata
     id="metadata5">
    <rdf:RDF>
      <cc:Work
         rdf:about="">
        <dc:format>image/svg+xml</dc:format>
        <dc:type
           rdf:resource="http://purl.org/dc/dcmitype/StillImage" />
        <dc:title />
      </cc:Work>
    </rdf:RDF>
  </metadata>
  <g
     inkscape:label="Layer 1"
     inkscape:groupmode="layer"
     id="layer1"
     transform="translate(28.278704,-163.4675)">
    <rect
       style="fill:none;fill-opacity:0.91818183;stroke:none;stroke-width:0.37804693;stroke-miterlimit:4;stroke-dasharray:none;stroke-opacity:1"
       id="rect815"
       width="64"
       height="64"
       x="23.434523"
       y="173.28" />
    <rect
       style="fill:#88efd5;fill-opacity:1;stroke:none;stroke-width:0.86255515;stroke-miterlimit:4;stroke-dasharray:none;stroke-opacity:1"
       id="rect838-8"
       width="25"
       height="25"
       x="-26.836309"
       y="213.4675" />
    <rect
       style="fill:#88efd5;fill-opacity:1;stroke:none;stroke-width:0.86255515;stroke-miterlimit:4;stroke-dasharray:none;stroke-opacity:1"
       id="rect838-4"
       width="25"
       height="25"
       x="-26.836309"
       y="188.4675" />
    <rect
       style="fill:#a69950;fill-opacity:1;stroke:none;stroke-width:0.93453741;stroke-miterlimit:4;stroke-dasharray:none;stroke-opacity:1"
       id="rect838-3"
       width="29.346727"
       height="25"
       x="-26.836309"
       y="163.4675" />
    <rect
       style="fill:#7e6e2e;fill-opacity:1;stroke:none;stroke-width:0.32024091;stroke-miterlimit:4;stroke-dasharray:none;stroke-opacity:1"
       id="rect849"
       width="12.5"
       height="8.1532736"
       x="14.336308"
       y="175.9675"
       transform="scale(-1,1)" />
    <rect
       style="fill:#7e6e2e;fill-opacity:1;stroke:none;stroke-width:0.46032923;stroke-miterlimit:4;stroke-dasharray:none;stroke-opacity:1"
       id="rect849-1"
       width="16.846727"
       height="12.5"
       x="-2.5104179"
       y="163.4675"
       transform="scale(-1,1)" />
    <rect
       style="fill:#7e6e2e;fill-opacity:1;stroke:none;stroke-width:0.39652064;stroke-miterlimit:4;stroke-dasharray:none;stroke-opacity:1"
       id="rect849-4"
       width="12.5"
       height="12.5"
       x="14.336309"
       y="163.4675"
       transform="scale(-1,1)" />
    <rect
       style="fill:#7e6e2e;fill-opacity:1;stroke:none;stroke-width:0.17305154;stroke-miterlimit:4;stroke-dasharray:none;stroke-opacity:1"
       id="rect849-9"
       width="6.2633929"
       height="4.7514877"
       x="20.572916"
       y="183.716"
       transform="scale(-1,1)" />
    <rect
       style="fill:#ffffff;fill-opacity:1;stroke:none;stroke-width:0.5;stroke-miterlimit:4;stroke-dasharray:none;stroke-opacity:1"
       id="rect896"
       width="11.150297"
       height="3.0238097"
       x="-10.961309"
       y="178.6937" />
    <rect
       style="fill:#977700;fill-opacity:1;stroke:none;stroke-width:0.35054436;stroke-miterlimit:4;stroke-dasharray:none;stroke-opacity:1"
       id="rect896-2"
       width="5.4806542"
       height="3.0238097"
       x="-5.2916665"
       y="178.6937" />
    <rect
       style="fill:#e49749;fill-opacity:1;stroke:none;stroke-width:0.23111793;stroke-miterlimit:4;stroke-dasharray:none;stroke-opacity:1"
       id="rect913"
       width="5"
       height="2.5"
       x="-2.4895821"
       y="184.63115" />
    <rect
       style="fill:#32567d;fill-opacity:1;stroke:none;stroke-width:0.54552776;stroke-miterlimit:4;stroke-dasharray:none;stroke-opacity:1"
       id="rect838-8-66"
       width="25"
       height="10"
       x="-26.836309"
       y="228.4675" />
    <g
       id="g1053">
      <rect
         y="238.4675"
         x="-26.836309"
         height="30"
         width="10"
         id="rect838-8-4"
         style="fill:#32567d;fill-opacity:1;stroke:none;stroke-width:0.59759569;stroke-miterlimit:4;stroke-dasharray:none;stroke-opacity:1" />
      <rect
         y="268.4675"
         x="-26.836309"
         height="5"
         width="10"
         id="rect838-8-4-9"
         style="fill:#a69950;fill-opacity:1;stroke:none;stroke-width:0.24396741;stroke-miterlimit:4;stroke-dasharray:none;stroke-opacity:1" />
    </g>
    <g
       transform="rotate(-19.799964,-20.144358,195.32917)"
       id="g1053-5">
      <rect
         y="238.4675"
         x="-26.836309"
         height="30"
         width="10"
         id="rect838-8-4-0"
         style="fill:#32567d;fill-opacity:1;stroke:none;stroke-width:0.59759569;stroke-miterlimit:4;stroke-dasharray:none;stroke-opacity:1" />
      <rect
         y="268.4675"
         x="-26.836309"
         height="5"
         width="10"
         id="rect838-8-4-9-4"
         style="fill:#a69950;fill-opacity:1;stroke:none;stroke-width:0.24396741;stroke-miterlimit:4;stroke-dasharray:none;stroke-opacity:1" />
    </g>
    <rect
       style="fill:#a69950;fill-opacity:1;stroke:none;stroke-width:0.05439561;stroke-miterlimit:4;stroke-dasharray:none;stroke-opacity:1"
       id="rect1076"
       width="7.4568453"
       height="2.5"
       x="-9.2931547"
       y="188.4675" />
    <rect
       style="fill:#a69950;fill-opacity:1;stroke:none;stroke-width:0.04107033;stroke-miterlimit:4;stroke-dasharray:none;stroke-opacity:1"
       id="rect1076-8"
       width="4.2522326"
       height="2.5"
       x="-6.088542"
       y="190.9675" />
    <g
       id="g1143"
       transform="rotate(-36.368139,-14.207571,256.12981)">
      <rect
         y="194.45187"
         x="10.248082"
         height="30"
         width="10"
         id="rect838-4-7"
         style="fill:#a69950;fill-opacity:1;stroke:none;stroke-width:0.59759569;stroke-miterlimit:4;stroke-dasharray:none;stroke-opacity:1" />
      <rect
         y="194.45187"
         x="10.248081"
         height="10"
         width="10"
         id="rect838-4-7-1"
         style="fill:#88efd5;fill-opacity:1;stroke:none;stroke-width:0.34502205;stroke-miterlimit:4;stroke-dasharray:none;stroke-opacity:1" />
    </g>
  </g>
  <g
     inkscape:groupmode="layer"
     id="layer2"
     inkscape:label="Layer 2"
     transform="translate(51.713227,9.8125036)" />
</svg>
