<?xml version="1.0" encoding="UTF-8" standalone="no"?>
<!-- Created with Inkscape (http://www.inkscape.org/) -->

<svg
   xmlns:dc="http://purl.org/dc/elements/1.1/"
   xmlns:cc="http://creativecommons.org/ns#"
   xmlns:rdf="http://www.w3.org/1999/02/22-rdf-syntax-ns#"
   xmlns:svg="http://www.w3.org/2000/svg"
   xmlns="http://www.w3.org/2000/svg"
   xmlns:sodipodi="http://sodipodi.sourceforge.net/DTD/sodipodi-0.dtd"
   xmlns:inkscape="http://www.inkscape.org/namespaces/inkscape"
   width="29.346727mm"
   height="106.56101mm"
   viewBox="0 0 29.346727 106.56101"
   version="1.1"
   id="svg8"
   inkscape:version="0.92.4 (5da689c313, 2019-01-14)"
   sodipodi:docname="skeleton.svg">
  <defs
     id="defs2" />
  <sodipodi:namedview
     id="base"
     pagecolor="#ffffff"
     bordercolor="#666666"
     borderopacity="1.0"
     inkscape:pageopacity="0.0"
     inkscape:pageshadow="2"
     inkscape:zoom="2.8"
     inkscape:cx="-9.9865736"
     inkscape:cy="315.30624"
     inkscape:document-units="mm"
     inkscape:current-layer="layer2"
     showgrid="false"
     inkscape:window-width="1440"
     inkscape:window-height="835"
     inkscape:window-x="0"
     inkscape:window-y="0"
     inkscape:window-maximized="1">
    <inkscape:grid
       type="xygrid"
       id="grid836"
       originx="50.270824"
       originy="32.748511" />
  </sodipodi:namedview>
  <metadata
     id="metadata5">
    <rdf:RDF>
      <cc:Work
         rdf:about="">
        <dc:format>image/svg+xml</dc:format>
        <dc:type
           rdf:resource="http://purl.org/dc/dcmitype/StillImage" />
        <dc:title />
      </cc:Work>
    </rdf:RDF>
  </metadata>
  <g
     inkscape:label="Layer 1"
     inkscape:groupmode="layer"
     id="layer1"
     transform="translate(26.8363,-163.4675)">
    <rect
       style="fill:none;fill-opacity:0.91818183;stroke:none;stroke-width:0.37804693;stroke-miterlimit:4;stroke-dasharray:none;stroke-opacity:1"
       id="rect815"
       width="64"
       height="64"
       x="23.434523"
       y="173.28" />
    <rect
       style="fill:#9aab9e;fill-opacity:1;stroke:none;stroke-width:0.86255515;stroke-miterlimit:4;stroke-dasharray:none;stroke-opacity:1"
       id="rect838-8"
       width="25"
       height="25"
       x="-2.5104275"
       y="213.4675"
       transform="scale(-1,1)" />
    <rect
       style="fill:#a4b4a8;fill-opacity:1;stroke:none;stroke-width:0.86255515;stroke-miterlimit:4;stroke-dasharray:none;stroke-opacity:1"
       id="rect838-4"
       width="25"
       height="25"
       x="-2.5104275"
       y="188.4675"
       transform="scale(-1,1)" />
    <rect
       style="fill:#50a66f;fill-opacity:1;stroke:none;stroke-width:0.93453741;stroke-miterlimit:4;stroke-dasharray:none;stroke-opacity:1"
       id="rect838-3"
       width="29.346727"
       height="25"
       x="-2.5104275"
       y="163.4675"
       transform="scale(-1,1)" />
    <rect
       style="fill:#d1d1d1;fill-opacity:1;stroke:none;stroke-width:0.61294597;stroke-miterlimit:4;stroke-dasharray:none;stroke-opacity:1"
       id="rect838-8-66"
       width="10"
       height="31.561001"
       x="-2.5104275"
       y="238.46751"
       transform="scale(-1,1)" />
    <g
       id="g1143"
       transform="matrix(0.99999138,0.00591675,0.00415316,-1.4246267,-26.212906,510.667)">
      <rect
         y="194.45187"
         x="10.248082"
         height="30"
         width="10"
         id="rect838-4-7"
         style="fill:#adc1b2;fill-opacity:1;stroke:none;stroke-width:0.09467298;stroke-miterlimit:4;stroke-dasharray:none;stroke-opacity:1" />
      <rect
         y="194.45187"
         x="10.248081"
         height="10"
         width="10"
         id="rect838-4-7-1"
         style="fill:#bfbfbf;fill-opacity:1;stroke:none;stroke-width:0.34502205;stroke-miterlimit:4;stroke-dasharray:none;stroke-opacity:1" />
    </g>
    <rect
       style="fill:#a9b8ad;fill-opacity:1;stroke:none;stroke-width:0.43127757;stroke-miterlimit:4;stroke-dasharray:none;stroke-opacity:1"
       id="rect838-3-4"
       width="12.5"
       height="12.5"
       x="-2.5104275"
       y="175.9675"
       transform="scale(-1,1)" />
    <rect
       style="fill:#b3c0b6;fill-opacity:1;stroke:none;stroke-width:0.43127757;stroke-miterlimit:4;stroke-dasharray:none;stroke-opacity:1"
       id="rect838-3-4-1"
       width="12.5"
       height="12.5"
       x="-2.5104275"
       y="163.4675"
       transform="scale(-1,1)" />
    <rect
       style="fill:#a8b7ab;fill-opacity:1;stroke:none;stroke-width:0.2934016;stroke-miterlimit:4;stroke-dasharray:none;stroke-opacity:1"
       id="rect838-3-4-4"
       width="9.0394344"
       height="8"
       x="9.9895725"
       y="167.9675"
       transform="scale(-1,1)" />
    <rect
       style="fill:#9fb0a2;fill-opacity:1;stroke:none;stroke-width:0.43127757;stroke-miterlimit:4;stroke-dasharray:none;stroke-opacity:1"
       id="rect838-3-4-9"
       width="12.5"
       height="12.5"
       x="9.9895725"
       y="175.9675"
       transform="scale(-1,1)" />
    <rect
       style="fill:#a3b3a7;fill-opacity:1;stroke:none;stroke-width:0.27601764;stroke-miterlimit:4;stroke-dasharray:none;stroke-opacity:1"
       id="rect838-3-4-4-2"
       width="8"
       height="8"
       x="18.8363"
       y="172.4675"
       transform="scale(-1,1)" />
    <rect
       style="fill:#a9b8ad;fill-opacity:1;stroke:none;stroke-width:0.27601764;stroke-miterlimit:4;stroke-dasharray:none;stroke-opacity:1"
       id="rect838-3-4-4-0"
       width="8"
       height="8"
       x="18.8363"
       y="180.4675"
       transform="scale(-1,1)" />
    <rect
       style="fill:#b6c2b8;fill-opacity:1;stroke:none;stroke-width:0.29276091;stroke-miterlimit:4;stroke-dasharray:none;stroke-opacity:1"
       id="rect838-3-4-4-6"
       width="8"
       height="9"
       x="18.8363"
       y="163.4675"
       transform="scale(-1,1)" />
    <rect
       style="fill:#b2bfb5;fill-opacity:1;stroke:none;stroke-width:0.2200512;stroke-miterlimit:4;stroke-dasharray:none;stroke-opacity:1"
       id="rect838-3-4-4-8"
       width="9.0394344"
       height="4.5"
       x="9.9895725"
       y="163.4675"
       transform="scale(-1,1)" />
    <rect
       style="fill:#d1d1d1;fill-opacity:1;stroke:none;stroke-width:0.61294597;stroke-miterlimit:4;stroke-dasharray:none;stroke-opacity:1"
       id="rect838-8-66-4"
       width="10"
       height="31.561001"
       x="12.489573"
       y="238.4675"
       transform="scale(-1,1)" />
  </g>
  <g
     inkscape:groupmode="layer"
     id="layer2"
     inkscape:label="Layer 2"
     transform="translate(50.270823,9.8125048)">
    <rect
       style="fill:#c33333;fill-opacity:1;stroke:none;stroke-width:0.35054436;stroke-miterlimit:4;stroke-dasharray:none;stroke-opacity:1"
       id="rect896-2"
       width="5.4806542"
       height="3.0238097"
       x="33.424095"
       y="-0.33631593"
       transform="scale(-1,1)" />
    <rect
       style="fill:#515151;fill-opacity:1;stroke:none;stroke-width:0.57273948;stroke-miterlimit:4;stroke-dasharray:none;stroke-opacity:1"
       id="rect896-2-8"
       width="14.630554"
       height="3.0238097"
       x="33.372417"
       y="9.2343702"
       transform="scale(-1,1)" />
  </g>
</svg>
